291188 39356 357
694459 54062 442
749751 42578 423
886106 76990 370
517246 53318 470
203388 3533 354
369474 31085 410
899808 33602 370
181906 98830 365
89477 68771 333
5247 585 238
702862 73699 411
466119 30141 444
723141 67460 411
176213 7823 347
515031 97822 470
635338 29416 385
134439 9427 331
962453 39347 414
175640 94607 347
177361 93907 347
485281 64065 413
414393 6107 449
576933 14061 389
798465 84757 468
567543 5375 421
776504 83223 437
761868 49366 436
807000 99600 406
907979 98636 445
702817 41770 411
479022 54601 382
660909 38097 366
751652 38056 423
662414 40197 366
617266 54739 447
820522 20557 450
900813 48850 401
516045 6225 470
345418 21354 353
172565 30373 334
118222 66078 349
697569 679 442
705895 21837 504
393507 27146 361
1987 7702 262
551088 11809 389
948683 29855 383
637082 16084 416
349564 17103 441
141832 85205 344
653475 80138 354
97785 85522 333
711474 22179 380
574648 76528 389
928340 67359 476
998261 65136 440
724689 15374 411
955060 38634 414
228809 66093 368
558662 47437 421
959095 24449 414
740212 25851 423
835951 98904 419
122320 6845 336
705199 82844 504
180753 77602 365
254914 92688 363
455576 81723 387
406572 44625 405
51689 53275 340
805845 60030 406
409882 35175 405
259984 79102 363
961118 7491 414
227714 34465 368
747997 3621 423
143736 3926 375
122997 97846 336
893912 61158 369
193611 13715 347
537876 91617 377
471989 96738 350
167105 44195 370
759177 88925 424
471994 26468 350
936996 95679 414
375019 50365 392
322578 56777 371
711820 99539 380
152204 64416 370
317682 8948 384
154752 77547 370
902614 92384 401
469512 15704 444
37269 80084 314
909841 87299 445
65895 10488 335
367933 50884 410
337804 57376 366
320880 38378 371
966383 76886 414
116046 65217 349
118959 54665 349
4814 46472 314
236524 76015 443
798721 72838 468
571422 73801 389
44031 92713 333
259630 25779 363
298971 9483 371
690869 27588 441
386246 67318 379
619050 70572 447
503967 82511 426
909697 47766 445
309265 6669 383
111131 39577 322
760096 41657 436
378138 83634 423
575073 38200 389
950334 93892 382
197276 39489 360
355676 56300 379
24201 28757 308
269053 35495 407
426407 77695 418
46187 24774 314
230890 85788 443
81035 52969 322
650500 18171 353
588111 78941 434
409426 15141 405
413484 86479 449
443536 7638 368
962839 39802 414
434691 24639 387
420811 51752 386
949134 96264 383
901681 91206 401
905995 85007 401
810710 53013 406
159065 79537 383
659258 7716 429
550542 68009 389
153220 28501 370
273638 56296 407
189216 773 365
954777 20838 414
366789 23110 410
422729 47118 386
445330 74311 368
757006 91481 424
517795 25639 470
671036 28993 366
707883 7644 504
104414 38423 341
452047 76702 387
403899 28197 387
167638 78162 370
880006 34855 369
698096 72139 442
576392 3860 389
865116 52340 400
518419 49917 470
957890 53171 414
75738 33237 325
312771 53422 384
811974 43299 406
567292 2219 421
764245 90782 436
602654 81168 403
822177 60272 450
646342 42042 416
680210 32041 441
208926 79551 373
649040 21745 416
742269 42677 423
308537 19479 383
785010 45177 405
353496 65343 379
282307 51060 375
688734 15583 441
290386 13052 357
939847 78419 507
497922 20927 426
161262 14886 370
86956 98406 333
669481 49718 442
723719 63626 411
